%YAML 1.1
%TAG !u! tag:unity3d.com,2011:
--- !u!1045 &1
EditorBuildSettings:
  m_ObjectHideFlags: 0
  serializedVersion: 2
  m_Scenes:
  - enabled: 0
    path: Assets/Scenes/AR.unity
    guid: 2da0b2bb65ea0664f909efa5a0a24512
  - enabled: 0
    path: Assets/BasicMechanism.unity
    guid: c5a34365d60532043b6af47f80db2665
  - enabled: 1
    path: Assets/newScene.unity
    guid: 0b1f1d2f818bc1c4c8b8021f28bb50e7
